sim/transcript
# //  Questa Sim-64
# //  Version 10.7c linux_x86_64 Aug 17 2018
# //
# //  Copyright 1991-2018 Mentor Graphics Corporation
# //  All Rights Reserved.
# //
# //  QuestaSim and its associated documentation contain trade
# //  secrets and commercial or financial information that are the property of
# //  Mentor Graphics Corporation and are privileged, confidential,
# //  and exempt from disclosure under the Freedom of Information Act,
# //  5 U.S.C. Section 552. Furthermore, this information
# //  is prohibited from disclosure under the Trade Secrets Act,
# //  18 U.S.C. Section 1905.
# //
do ./script/sim.tcl
# ** Warning: (vlib-34) Library already exists at "work".
# QuestaSim-64 vcom 10.7c Compiler 2018.08 Aug 17 2018
# Start time: 19:54:06 on Apr 09,2021
# vcom -reportprogress 300 ../src/dadda/fa.vhd 
# -- Loading package STANDARD
# -- Loading package TEXTIO
# -- Loading package std_logic_1164
# -- Loading package std_logic_arith
# -- Loading package STD_LOGIC_UNSIGNED
# -- Compiling entity FA
# -- Compiling architecture structural of FA
# End time: 19:54:07 on Apr 09,2021, Elapsed time: 0:00:01
# Errors: 0, Warnings: 0
# QuestaSim-64 vcom 10.7c Compiler 2018.08 Aug 17 2018
# Start time: 19:54:07 on Apr 09,2021
# vcom -reportprogress 300 ../src/dadda/ha.vhd 
# -- Loading package STANDARD
# -- Loading package TEXTIO
# -- Loading package std_logic_1164
# -- Loading package std_logic_arith
# -- Loading package STD_LOGIC_UNSIGNED
# -- Compiling entity HA
# -- Compiling architecture gate of HA
# End time: 19:54:07 on Apr 09,2021, Elapsed time: 0:00:00
# Errors: 0, Warnings: 0
# QuestaSim-64 vcom 10.7c Compiler 2018.08 Aug 17 2018
# Start time: 19:54:07 on Apr 09,2021
# vcom -reportprogress 300 ../src/dadda/lut.vhd 
# -- Loading package STANDARD
# -- Loading package TEXTIO
# -- Loading package std_logic_1164
# -- Loading package std_logic_arith
# -- Loading package STD_LOGIC_UNSIGNED
# -- Compiling entity lut
# -- Compiling architecture behavioral of lut
# End time: 19:54:08 on Apr 09,2021, Elapsed time: 0:00:01
# Errors: 0, Warnings: 0
# QuestaSim-64 vcom 10.7c Compiler 2018.08 Aug 17 2018
# Start time: 19:54:08 on Apr 09,2021
# vcom -reportprogress 300 ../src/dadda/dadda_multiplier.vhd 
# -- Loading package STANDARD
# -- Loading package TEXTIO
# -- Loading package std_logic_1164
# -- Loading package std_logic_arith
# -- Loading package STD_LOGIC_UNSIGNED
# -- Compiling entity dadda_multiplier
# -- Compiling architecture structural of dadda_multiplier
# End time: 19:54:08 on Apr 09,2021, Elapsed time: 0:00:00
# Errors: 0, Warnings: 0
# QuestaSim-64 vlog 10.7c Compiler 2018.08 Aug 17 2018
# Start time: 19:54:08 on Apr 09,2021
# vlog -reportprogress 300 -sv ../tb/top.sv 
# ** Note: (vlog-2286) ../tb/top.sv(2): Using implicit +incdir+/software/mentor/questa10.7c/questasim/uvm-1.1d/../verilog_src/uvm-1.1d/src from import uvm_pkg
# -- Compiling package top_sv_unit
# -- Importing package mtiUvm.uvm_pkg (uvm-1.1d Built-in)
# ** Warning: ../tb/monitor.sv(49): (vlog-2240) Treating stand-alone use of function 'begin_tr' as an implicit VOID cast.
# ** Warning: ../tb/monitor_out.sv(48): (vlog-2240) Treating stand-alone use of function 'begin_tr' as an implicit VOID cast.
# -- Compiling interface dut_if
# -- Compiling module DUT
# -- Compiling module top
# 
# Top level modules:
# 	top
# End time: 19:54:13 on Apr 09,2021, Elapsed time: 0:00:05
# Errors: 0, Warnings: 2
# vsim top 
# Start time: 19:54:13 on Apr 09,2021
# ** Note: (vsim-3812) Design is being optimized...
# ** Warning: ../tb/monitor.sv(49): (vopt-2240) Treating stand-alone use of function 'begin_tr' as an implicit VOID cast.
# ** Warning: ../tb/monitor_out.sv(48): (vopt-2240) Treating stand-alone use of function 'begin_tr' as an implicit VOID cast.
# Loading sv_std.std
# Loading mtiUvm.uvm_pkg
# Loading work.top_sv_unit(fast)
# Loading work.top(fast)
# Loading work.DUT(fast)
# Loading mtiUvm.questa_uvm_pkg(fast)
# Loading work.dut_if(fast)
# Loading std.standard
# Loading std.textio(body)
# Loading ieee.std_logic_1164(body)
# Loading ieee.std_logic_arith(body)
# Loading ieee.std_logic_unsigned(body)
# Loading work.dadda_multiplier(structural)#1
# ** Warning: (vsim-3839) Variable '/top/out/data', driven via a port connection, is multiply driven. See ../src/DUT.sv(4).
#    Time: 0 ns  Iteration: 0  Instance: /top/multiplier File: ../src/DUT.sv Line: 11
# ** Warning: (vsim-3764) Stand-alone call to function 'begin_tr' treated as implicit void cast.
#    Time: 0 ns  Iteration: 0  Region: /top_sv_unit::driver File: ../tb/driver.sv Line: 67
# Loading /software/mentor/questa10.7c/questasim/uvm-1.1d/linux_x86_64/uvm_dpi.so
# ----------------------------------------------------------------
# UVM-1.1d
# (C) 2007-2013 Mentor Graphics Corporation
# (C) 2007-2013 Cadence Design Systems, Inc.
# (C) 2006-2013 Synopsys, Inc.
# (C) 2011-2013 Cypress Semiconductor Corp.
# ----------------------------------------------------------------
# 
#   ***********       IMPORTANT RELEASE NOTES         ************
# 
#   You are using a version of the UVM library that has been compiled
#   with `UVM_NO_DEPRECATED undefined.
#   See http://www.eda.org/svdb/view.php?id=3313 for more details.
# 
#   You are using a version of the UVM library that has been compiled
#   with `UVM_OBJECT_MUST_HAVE_CONSTRUCTOR undefined.
#   See http://www.eda.org/svdb/view.php?id=3770 for more details.
# 
#       (Specify +UVM_NO_RELNOTES to turn off this notice)
# 
# UVM_INFO verilog_src/questa_uvm_pkg-1.2/src/questa_uvm_pkg.sv(215) @ 0: reporter [Questa UVM] QUESTA_UVM-1.2.3
# UVM_INFO verilog_src/questa_uvm_pkg-1.2/src/questa_uvm_pkg.sv(216) @ 0: reporter [Questa UVM]  questa_uvm::init(+struct)
# ** Warning: There is an 'U'|'X'|'W'|'Z'|'-' in an arithmetic operand, the result will be 'X'(es).
#    Time: 0 ns  Iteration: 0  Instance: /top/multiplier/multiplier_under_test
# ** Warning: There is an 'U'|'X'|'W'|'Z'|'-' in an arithmetic operand, the result will be 'X'(es).
#    Time: 0 ns  Iteration: 0  Instance: /top/multiplier/multiplier_under_test
# UVM_INFO @ 0: reporter [RNTST] Running test simple_test...
# ** Warning: There is an 'U'|'X'|'W'|'Z'|'-' in an arithmetic operand, the result will be 'X'(es).
#    Time: 0 ns  Iteration: 1  Instance: /top/multiplier/multiplier_under_test
# ** Warning: There is an 'U'|'X'|'W'|'Z'|'-' in an arithmetic operand, the result will be 'X'(es).
#    Time: 0 ns  Iteration: 1  Instance: /top/multiplier/multiplier_under_test
# ** Warning: There is an 'U'|'X'|'W'|'Z'|'-' in an arithmetic operand, the result will be 'X'(es).
#    Time: 0 ns  Iteration: 3  Instance: /top/multiplier/multiplier_under_test
# ** Warning: There is an 'U'|'X'|'W'|'Z'|'-' in an arithmetic operand, the result will be 'X'(es).
#    Time: 0 ns  Iteration: 3  Instance: /top/multiplier/multiplier_under_test
# ** Warning: There is an 'U'|'X'|'W'|'Z'|'-' in an arithmetic operand, the result will be 'X'(es).
#    Time: 0 ns  Iteration: 4  Instance: /top/multiplier/multiplier_under_test
# ** Warning: There is an 'U'|'X'|'W'|'Z'|'-' in an arithmetic operand, the result will be 'X'(es).
#    Time: 0 ns  Iteration: 4  Instance: /top/multiplier/multiplier_under_test
# ** Warning: There is an 'U'|'X'|'W'|'Z'|'-' in an arithmetic operand, the result will be 'X'(es).
#    Time: 0 ns  Iteration: 6  Instance: /top/multiplier/multiplier_under_test
# ** Warning: There is an 'U'|'X'|'W'|'Z'|'-' in an arithmetic operand, the result will be 'X'(es).
#    Time: 0 ns  Iteration: 6  Instance: /top/multiplier/multiplier_under_test
# ** Warning: There is an 'U'|'X'|'W'|'Z'|'-' in an arithmetic operand, the result will be 'X'(es).
#    Time: 0 ns  Iteration: 7  Instance: /top/multiplier/multiplier_under_test
# ** Warning: There is an 'U'|'X'|'W'|'Z'|'-' in an arithmetic operand, the result will be 'X'(es).
#    Time: 0 ns  Iteration: 7  Instance: /top/multiplier/multiplier_under_test
# ** Warning: There is an 'U'|'X'|'W'|'Z'|'-' in an arithmetic operand, the result will be 'X'(es).
#    Time: 0 ns  Iteration: 8  Instance: /top/multiplier/multiplier_under_test
# ** Warning: There is an 'U'|'X'|'W'|'Z'|'-' in an arithmetic operand, the result will be 'X'(es).
#    Time: 0 ns  Iteration: 8  Instance: /top/multiplier/multiplier_under_test
# ** Warning: There is an 'U'|'X'|'W'|'Z'|'-' in an arithmetic operand, the result will be 'X'(es).
#    Time: 0 ns  Iteration: 9  Instance: /top/multiplier/multiplier_under_test
# ** Warning: There is an 'U'|'X'|'W'|'Z'|'-' in an arithmetic operand, the result will be 'X'(es).
#    Time: 0 ns  Iteration: 9  Instance: /top/multiplier/multiplier_under_test
# ** Warning: There is an 'U'|'X'|'W'|'Z'|'-' in an arithmetic operand, the result will be 'X'(es).
#    Time: 0 ns  Iteration: 10  Instance: /top/multiplier/multiplier_under_test
# ** Warning: There is an 'U'|'X'|'W'|'Z'|'-' in an arithmetic operand, the result will be 'X'(es).
#    Time: 0 ns  Iteration: 10  Instance: /top/multiplier/multiplier_under_test
# ** Warning: There is an 'U'|'X'|'W'|'Z'|'-' in an arithmetic operand, the result will be 'X'(es).
#    Time: 0 ns  Iteration: 11  Instance: /top/multiplier/multiplier_under_test
# ** Warning: There is an 'U'|'X'|'W'|'Z'|'-' in an arithmetic operand, the result will be 'X'(es).
#    Time: 0 ns  Iteration: 11  Instance: /top/multiplier/multiplier_under_test
# ** Warning: There is an 'U'|'X'|'W'|'Z'|'-' in an arithmetic operand, the result will be 'X'(es).
#    Time: 0 ns  Iteration: 12  Instance: /top/multiplier/multiplier_under_test
# ** Warning: There is an 'U'|'X'|'W'|'Z'|'-' in an arithmetic operand, the result will be 'X'(es).
#    Time: 0 ns  Iteration: 12  Instance: /top/multiplier/multiplier_under_test
# ** Warning: There is an 'U'|'X'|'W'|'Z'|'-' in an arithmetic operand, the result will be 'X'(es).
#    Time: 0 ns  Iteration: 13  Instance: /top/multiplier/multiplier_under_test
# ** Warning: There is an 'U'|'X'|'W'|'Z'|'-' in an arithmetic operand, the result will be 'X'(es).
#    Time: 0 ns  Iteration: 13  Instance: /top/multiplier/multiplier_under_test
# ** Warning: There is an 'U'|'X'|'W'|'Z'|'-' in an arithmetic operand, the result will be 'X'(es).
#    Time: 0 ns  Iteration: 14  Instance: /top/multiplier/multiplier_under_test
# ** Warning: There is an 'U'|'X'|'W'|'Z'|'-' in an arithmetic operand, the result will be 'X'(es).
#    Time: 0 ns  Iteration: 14  Instance: /top/multiplier/multiplier_under_test
# ** Warning: There is an 'U'|'X'|'W'|'Z'|'-' in an arithmetic operand, the result will be 'X'(es).
#    Time: 0 ns  Iteration: 15  Instance: /top/multiplier/multiplier_under_test
# ** Warning: There is an 'U'|'X'|'W'|'Z'|'-' in an arithmetic operand, the result will be 'X'(es).
#    Time: 0 ns  Iteration: 15  Instance: /top/multiplier/multiplier_under_test
# ** Warning: There is an 'U'|'X'|'W'|'Z'|'-' in an arithmetic operand, the result will be 'X'(es).
#    Time: 0 ns  Iteration: 16  Instance: /top/multiplier/multiplier_under_test
# ** Warning: There is an 'U'|'X'|'W'|'Z'|'-' in an arithmetic operand, the result will be 'X'(es).
#    Time: 25 ns  Iteration: 10  Instance: /top/multiplier/multiplier_under_test
# ** Warning: There is an 'U'|'X'|'W'|'Z'|'-' in an arithmetic operand, the result will be 'X'(es).
#    Time: 25 ns  Iteration: 10  Instance: /top/multiplier/multiplier_under_test
# ** Warning: There is an 'U'|'X'|'W'|'Z'|'-' in an arithmetic operand, the result will be 'X'(es).
#    Time: 25 ns  Iteration: 11  Instance: /top/multiplier/multiplier_under_test
# ** Warning: There is an 'U'|'X'|'W'|'Z'|'-' in an arithmetic operand, the result will be 'X'(es).
#    Time: 25 ns  Iteration: 12  Instance: /top/multiplier/multiplier_under_test
# ** Warning: There is an 'U'|'X'|'W'|'Z'|'-' in an arithmetic operand, the result will be 'X'(es).
#    Time: 25 ns  Iteration: 12  Instance: /top/multiplier/multiplier_under_test
# ** Warning: There is an 'U'|'X'|'W'|'Z'|'-' in an arithmetic operand, the result will be 'X'(es).
#    Time: 25 ns  Iteration: 13  Instance: /top/multiplier/multiplier_under_test
# ** Warning: There is an 'U'|'X'|'W'|'Z'|'-' in an arithmetic operand, the result will be 'X'(es).
#    Time: 25 ns  Iteration: 13  Instance: /top/multiplier/multiplier_under_test
# ** Warning: There is an 'U'|'X'|'W'|'Z'|'-' in an arithmetic operand, the result will be 'X'(es).
#    Time: 25 ns  Iteration: 14  Instance: /top/multiplier/multiplier_under_test
# ** Warning: There is an 'U'|'X'|'W'|'Z'|'-' in an arithmetic operand, the result will be 'X'(es).
#    Time: 25 ns  Iteration: 14  Instance: /top/multiplier/multiplier_under_test
# ** Warning: There is an 'U'|'X'|'W'|'Z'|'-' in an arithmetic operand, the result will be 'X'(es).
#    Time: 25 ns  Iteration: 15  Instance: /top/multiplier/multiplier_under_test
# ** Warning: There is an 'U'|'X'|'W'|'Z'|'-' in an arithmetic operand, the result will be 'X'(es).
#    Time: 25 ns  Iteration: 15  Instance: /top/multiplier/multiplier_under_test
# ** Warning: There is an 'U'|'X'|'W'|'Z'|'-' in an arithmetic operand, the result will be 'X'(es).
#    Time: 25 ns  Iteration: 16  Instance: /top/multiplier/multiplier_under_test
# ** Warning: There is an 'U'|'X'|'W'|'Z'|'-' in an arithmetic operand, the result will be 'X'(es).
#    Time: 25 ns  Iteration: 16  Instance: /top/multiplier/multiplier_under_test
# ** Warning: There is an 'U'|'X'|'W'|'Z'|'-' in an arithmetic operand, the result will be 'X'(es).
#    Time: 25 ns  Iteration: 17  Instance: /top/multiplier/multiplier_under_test
# ** Warning: There is an 'U'|'X'|'W'|'Z'|'-' in an arithmetic operand, the result will be 'X'(es).
#    Time: 25 ns  Iteration: 17  Instance: /top/multiplier/multiplier_under_test
# ** Warning: There is an 'U'|'X'|'W'|'Z'|'-' in an arithmetic operand, the result will be 'X'(es).
#    Time: 25 ns  Iteration: 18  Instance: /top/multiplier/multiplier_under_test
# ** Warning: There is an 'U'|'X'|'W'|'Z'|'-' in an arithmetic operand, the result will be 'X'(es).
#    Time: 25 ns  Iteration: 18  Instance: /top/multiplier/multiplier_under_test
# ** Warning: There is an 'U'|'X'|'W'|'Z'|'-' in an arithmetic operand, the result will be 'X'(es).
#    Time: 25 ns  Iteration: 19  Instance: /top/multiplier/multiplier_under_test
# ** Warning: There is an 'U'|'X'|'W'|'Z'|'-' in an arithmetic operand, the result will be 'X'(es).
#    Time: 25 ns  Iteration: 19  Instance: /top/multiplier/multiplier_under_test
# ** Warning: There is an 'U'|'X'|'W'|'Z'|'-' in an arithmetic operand, the result will be 'X'(es).
#    Time: 25 ns  Iteration: 20  Instance: /top/multiplier/multiplier_under_test
# ** Warning: There is an 'U'|'X'|'W'|'Z'|'-' in an arithmetic operand, the result will be 'X'(es).
#    Time: 25 ns  Iteration: 20  Instance: /top/multiplier/multiplier_under_test
# ** Warning: There is an 'U'|'X'|'W'|'Z'|'-' in an arithmetic operand, the result will be 'X'(es).
#    Time: 25 ns  Iteration: 21  Instance: /top/multiplier/multiplier_under_test
# ** Warning: There is an 'U'|'X'|'W'|'Z'|'-' in an arithmetic operand, the result will be 'X'(es).
#    Time: 25 ns  Iteration: 21  Instance: /top/multiplier/multiplier_under_test
# ** Warning: There is an 'U'|'X'|'W'|'Z'|'-' in an arithmetic operand, the result will be 'X'(es).
#    Time: 25 ns  Iteration: 22  Instance: /top/multiplier/multiplier_under_test
# ** Warning: There is an 'U'|'X'|'W'|'Z'|'-' in an arithmetic operand, the result will be 'X'(es).
#    Time: 25 ns  Iteration: 22  Instance: /top/multiplier/multiplier_under_test
# ** Warning: There is an 'U'|'X'|'W'|'Z'|'-' in an arithmetic operand, the result will be 'X'(es).
#    Time: 25 ns  Iteration: 23  Instance: /top/multiplier/multiplier_under_test
# ** Warning: There is an 'U'|'X'|'W'|'Z'|'-' in an arithmetic operand, the result will be 'X'(es).
#    Time: 25 ns  Iteration: 23  Instance: /top/multiplier/multiplier_under_test
# ** Warning: There is an 'U'|'X'|'W'|'Z'|'-' in an arithmetic operand, the result will be 'X'(es).
#    Time: 25 ns  Iteration: 24  Instance: /top/multiplier/multiplier_under_test
# ** Warning: There is an 'U'|'X'|'W'|'Z'|'-' in an arithmetic operand, the result will be 'X'(es).
#    Time: 25 ns  Iteration: 24  Instance: /top/multiplier/multiplier_under_test
# ** Warning: There is an 'U'|'X'|'W'|'Z'|'-' in an arithmetic operand, the result will be 'X'(es).
#    Time: 25 ns  Iteration: 25  Instance: /top/multiplier/multiplier_under_test
# ** Warning: There is an 'U'|'X'|'W'|'Z'|'-' in an arithmetic operand, the result will be 'X'(es).
#    Time: 25 ns  Iteration: 25  Instance: /top/multiplier/multiplier_under_test
# ** Warning: There is an 'U'|'X'|'W'|'Z'|'-' in an arithmetic operand, the result will be 'X'(es).
#    Time: 25 ns  Iteration: 26  Instance: /top/multiplier/multiplier_under_test
# Dadda: input A =  731014105, input B =  175121917, output OUT =   128016591421639285
# Dadda: input A = 00101011100100100110001111011001, input B = 00001010011100000010010111111101, output OUT = 0000000111000110110011100110100101100001000010110000101001110101
# refmod: input A =   731014105, input B =   175121917, output OUT =  1628113525
# refmod: input A = 00101011100100100110001111011001, input B = 00001010011100000010010111111101, output OUT = 01100001000010110000101001110101
# UVM_INFO @ 45: uvm_test_top.env_h.comp [Comparator Match] 
# Dadda: input A =   80379531, input B = 2702342644, output OUT =   217213034326019964
# Dadda: input A = 00000100110010100111111010001011, input B = 10100001000100100111100111110100, output OUT = 0000001100000011101100100001101010010111100101100100111101111100
# refmod: input A =    80379531, input B = -1592624652, output OUT = -1751756932
# refmod: input A = 00000100110010100111111010001011, input B = 10100001000100100111100111110100, output OUT = 10010111100101100100111101111100
# UVM_INFO @ 75: uvm_test_top.env_h.comp [Comparator Match] 
# Dadda: input A =  260878708, input B = 3812952346, output OUT =   994718081690048968
# Dadda: input A = 00001111100011001011000101110100, input B = 11100011010001010000100100011010, output OUT = 0000110111001101111100101101001100110110110010110001100111001000
# refmod: input A =   260878708, input B =  -482014950, output OUT =   919280072
# refmod: input A = 00001111100011001011000101110100, input B = 11100011010001010000100100011010, output OUT = 00110110110010110001100111001000
# UVM_INFO @ 105: uvm_test_top.env_h.comp [Comparator Match] 
# Dadda: input A = 4264621708, input B = 4099804783, output OUT = 17484116476144029364
# Dadda: input A = 11111110001100001111011010001100, input B = 11110100010111100000111001101111, output OUT = 1111001010100100000011110100110011011100000111101000111010110100
# refmod: input A =   -30345588, input B =  -195162513, output OUT =  -601977164
# refmod: input A = 11111110001100001111011010001100, input B = 11110100010111100000111001101111, output OUT = 11011100000111101000111010110100
# UVM_INFO @ 135: uvm_test_top.env_h.comp [Comparator Match] 
# Dadda: input A = 2682128719, input B = 3715728877, output OUT =  9966063133019318563
# Dadda: input A = 10011111110111100000100101001111, input B = 11011101011110011000010111101101, output OUT = 1000101001001110100100011001110111110100101110111010100100100011
# refmod: input A = -1612838577, input B =  -579238419, output OUT =  -189028061
# refmod: input A = 10011111110111100000100101001111, input B = 11011101011110011000010111101101, output OUT = 11110100101110111010100100100011
# UVM_INFO @ 165: uvm_test_top.env_h.comp [Comparator Match] 
# Dadda: input A =  140412694, input B = 1111608308, output OUT =   156083917199061752
# Dadda: input A = 00001000010111101000011100010110, input B = 01000010010000011100101111110100, output OUT = 0000001000101010100001010111111011100111110011010011001011111000
# refmod: input A =   140412694, input B =  1111608308, output OUT =  -405982472
# refmod: input A = 00001000010111101000011100010110, input B = 01000010010000011100101111110100, output OUT = 11100111110011010011001011111000
# UVM_INFO @ 195: uvm_test_top.env_h.comp [Comparator Match] 
# Dadda: input A = 3761234779, input B = 3947285453, output OUT = 14846667328464369887
# Dadda: input A = 11100000001011111110001101011011, input B = 11101011010001101100101111001101, output OUT = 1100111000001001111101010100011000110011100001000011100011011111
# refmod: input A =  -533732517, input B =  -347681843, output OUT =   864303327
# refmod: input A = 11100000001011111110001101011011, input B = 11101011010001101100101111001101, output OUT = 00110011100001000011100011011111
# UVM_INFO @ 225: uvm_test_top.env_h.comp [Comparator Match] 
# Dadda: input A = 2531376513, input B = 3371244592, output OUT =  8533889379767067696
# Dadda: input A = 10010110111000011011110110000001, input B = 11001000111100010001110000110000, output OUT = 0111011001101110011101110010110100101001011111101010010000110000
# refmod: input A = -1763590783, input B =  -923722704, output OUT =   696165424
# refmod: input A = 10010110111000011011110110000001, input B = 11001000111100010001110000110000, output OUT = 00101001011111101010010000110000
# UVM_INFO @ 255: uvm_test_top.env_h.comp [Comparator Match] 
# Dadda: input A = 3872680796, input B = 3462746173, output OUT = 13410110605599593708
# Dadda: input A = 11100110110101000110101101011100, input B = 11001110011001010101000000111101, output OUT = 1011101000011010010010001000101111000101011101100101010011101100
# refmod: input A =  -422286500, input B =  -832221123, output OUT =  -982100756
# refmod: input A = 11100110110101000110101101011100, input B = 11001110011001010101000000111101, output OUT = 11000101011101100101010011101100
# UVM_INFO @ 285: uvm_test_top.env_h.comp [Comparator Match] 
# Dadda: input A = 2373230244, input B = 2938263881, output OUT =  6973176707242016964
# Dadda: input A = 10001101011101001001111010100100, input B = 10101111001000100101100101001001, output OUT = 0110000011000101101100110100010100001111001100000100000011000100
# refmod: input A = -1921737052, input B = -1356703415, output OUT =   254820548
# refmod: input A = 10001101011101001001111010100100, input B = 10101111001000100101100101001001, output OUT = 00001111001100000100000011000100
# UVM_INFO @ 315: uvm_test_top.env_h.comp [Comparator Match] 
# Dadda: input A = 1541776121, input B = 1428688626, output OUT =  2202718007911099746
# Dadda: input A = 01011011111001011010001011111001, input B = 01010101001010000000111011110010, output OUT = 0001111010010001101000000101101110010001111001011010110101100010
# refmod: input A =  1541776121, input B =  1428688626, output OUT = -1847218846
# refmod: input A = 01011011111001011010001011111001, input B = 01010101001010000000111011110010, output OUT = 10010001111001011010110101100010
# UVM_INFO @ 345: uvm_test_top.env_h.comp [Comparator Match] 
# Dadda: input A = 3393944429, input B = 3716857736, output OUT = 12614808606482752744
# Dadda: input A = 11001010010010110111101101101101, input B = 11011101100010101011111110001000, output OUT = 1010111100010000110011011001011101101010111100011110010011101000
# refmod: input A =  -901022867, input B =  -578109560, output OUT =  1794237672
# refmod: input A = 11001010010010110111101101101101, input B = 11011101100010101011111110001000, output OUT = 01101010111100011110010011101000
# UVM_INFO @ 375: uvm_test_top.env_h.comp [Comparator Match] 
# Dadda: input A = 1712994403, input B =  601358051, output OUT =  1030122975561988553
# Dadda: input A = 01100110000110100011100001100011, input B = 00100011110101111111111011100011, output OUT = 0000111001001011101110110110001101110001010101110011100111001001
# refmod: input A =  1712994403, input B =   601358051, output OUT =  1901541833
# refmod: input A = 01100110000110100011100001100011, input B = 00100011110101111111111011100011, output OUT = 01110001010101110011100111001001
# UVM_INFO @ 405: uvm_test_top.env_h.comp [Comparator Match] 
# Dadda: input A = 3547324387, input B =  350842963, output OUT =  1244553798657238681
# Dadda: input A = 11010011011011111101111111100011, input B = 00010100111010010111000001010011, output OUT = 0001000101000101100010110001011000000000110100111110011010011001
# refmod: input A =  -747642909, input B =   350842963, output OUT =    13887129
# refmod: input A = 11010011011011111101111111100011, input B = 00010100111010010111000001010011, output OUT = 00000000110100111110011010011001
# UVM_INFO @ 435: uvm_test_top.env_h.comp [Comparator Match] 
# Dadda: input A =   91952929, input B = 1965175865, output OUT =   180703676786858585
# Dadda: input A = 00000101011110110001011100100001, input B = 01110101001000100011010000111001, output OUT = 0000001010000001111111010000100101100000011111001101101001011001
# refmod: input A =    91952929, input B =  1965175865, output OUT =  1618795097
# refmod: input A = 00000101011110110001011100100001, input B = 01110101001000100011010000111001, output OUT = 01100000011111001101101001011001
# UVM_INFO @ 465: uvm_test_top.env_h.comp [Comparator Match] 
# Dadda: input A = 3072927006, input B = 2608252870, output OUT =  8014970682700007220
# Dadda: input A = 10110111001010010010010100011110, input B = 10011011011101101100011111000110, output OUT = 0110111100111010111001010101111011101011100000010000011100110100
# refmod: input A = -1222040290, input B = -1686714426, output OUT =  -343865548
# refmod: input A = 10110111001010010010010100011110, input B = 10011011011101101100011111000110, output OUT = 11101011100000010000011100110100
# UVM_INFO @ 495: uvm_test_top.env_h.comp [Comparator Match] 
# Dadda: input A =  876184097, input B =  614306907, output OUT =   538245942590657979
# Dadda: input A = 00110100001110011000001000100001, input B = 00100100100111011001010001011011, output OUT = 0000011101111000001110111101010101000001111010010101010110111011
# refmod: input A =   876184097, input B =   614306907, output OUT =  1105810875
# refmod: input A = 00110100001110011000001000100001, input B = 00100100100111011001010001011011, output OUT = 01000001111010010101010110111011
# UVM_INFO @ 525: uvm_test_top.env_h.comp [Comparator Match] 
# Dadda: input A = 1568767450, input B = 1075088082, output OUT =  1686563188924530900
# Dadda: input A = 01011101100000010111110111011010, input B = 01000000000101001000101011010010, output OUT = 0001011101100111111000000100100011010111000110001100000011010100
# refmod: input A =  1568767450, input B =  1075088082, output OUT =  -686243628
# refmod: input A = 01011101100000010111110111011010, input B = 01000000000101001000101011010010, output OUT = 11010111000110001100000011010100
# UVM_INFO @ 555: uvm_test_top.env_h.comp [Comparator Match] 
# Dadda: input A = 1678953407, input B =  444558830, output OUT =   746393562240433810
# Dadda: input A = 01100100000100101100101110111111, input B = 00011010011111110110110111101110, output OUT = 0000101001011011101110001111110110000011111110101011111010010010
# refmod: input A =  1678953407, input B =   444558830, output OUT = -2080719214
# refmod: input A = 01100100000100101100101110111111, input B = 00011010011111110110110111101110, output OUT = 10000011111110101011111010010010
# UVM_INFO @ 585: uvm_test_top.env_h.comp [Comparator Match] 
# Dadda: input A = 1221817855, input B = 4159049667, output OUT =  5081601142972404285
# Dadda: input A = 01001000110100110111010111111111, input B = 11110111111001100000111111000011, output OUT = 0100011010000101011110010101000011101001000101101101001000111101
# refmod: input A =  1221817855, input B =  -135917629, output OUT =  -384380355
# refmod: input A = 01001000110100110111010111111111, input B = 11110111111001100000111111000011, output OUT = 11101001000101101101001000111101
# UVM_INFO @ 615: uvm_test_top.env_h.comp [Comparator Match] 
# Dadda: input A = 2630731409, input B =   42791131, output OUT =   112571972348333579
# Dadda: input A = 10011100110011011100011010010001, input B = 00000010100011001111000011011011, output OUT = 0000000110001111111011111001110011000111011111001100111000001011
# refmod: input A = -1664235887, input B =    42791131, output OUT =  -948122101
# refmod: input A = 10011100110011011100011010010001, input B = 00000010100011001111000011011011, output OUT = 11000111011111001100111000001011
# UVM_INFO @ 645: uvm_test_top.env_h.comp [Comparator Match] 
# Dadda: input A = 2606837867, input B = 3476886790, output OUT =  9063680143444076930
# Dadda: input A = 10011011011000010011000001101011, input B = 11001111001111010001010100000110, output OUT = 0111110111001000101010010001000110101011101111101110100110000010
# refmod: input A = -1688129429, input B =  -818080506, output OUT = -1413551742
# refmod: input A = 10011011011000010011000001101011, input B = 11001111001111010001010100000110, output OUT = 10101011101111101110100110000010
# UVM_INFO @ 675: uvm_test_top.env_h.comp [Comparator Match] 
# Dadda: input A = 3413573445, input B = 2073383015, output OUT =  7077645201318036675
# Dadda: input A = 11001011011101101111111101000101, input B = 01111011100101010101000001100111, output OUT = 0110001000111000110110001100111111000110110011110100010011000011
# refmod: input A =  -881393851, input B =  2073383015, output OUT =  -959494973
# refmod: input A = 11001011011101101111111101000101, input B = 01111011100101010101000001100111, output OUT = 11000110110011110100010011000011
# UVM_INFO @ 705: uvm_test_top.env_h.comp [Comparator Match] 
# Dadda: input A = 2799892819, input B = 3816473543, output OUT = 10685716866949187717
# Dadda: input A = 10100110111000101111100101010011, input B = 11100011011110101100001111000111, output OUT = 1001010001001011010010101110000000001000111010000000100010000101
# refmod: input A = -1495074477, input B =  -478493753, output OUT =   149424261
# refmod: input A = 10100110111000101111100101010011, input B = 11100011011110101100001111000111, output OUT = 00001000111010000000100010000101
# UVM_INFO @ 735: uvm_test_top.env_h.comp [Comparator Match] 
# Dadda: input A = 3038299759, input B = 3893807004, output OUT = 11830552881845712036
# Dadda: input A = 10110101000110001100011001101111, input B = 11101000000101101100011110011100, output OUT = 1010010000101110100100010010101001000010111000110011010010100100
# refmod: input A = -1256667537, input B =  -401160292, output OUT =  1122186404
# refmod: input A = 10110101000110001100011001101111, input B = 11101000000101101100011110011100, output OUT = 01000010111000110011010010100100
# UVM_INFO @ 765: uvm_test_top.env_h.comp [Comparator Match] 
# Dadda: input A = 1778436677, input B = 2353557030, output OUT =  4185652143563189310
# Dadda: input A = 01101010000000001100101001000101, input B = 10001100010010000110111000100110, output OUT = 0011101000010110011011000111001010110010011011111010110000111110
# refmod: input A =  1778436677, input B = -1941410266, output OUT = -1301304258
# refmod: input A = 01101010000000001100101001000101, input B = 10001100010010000110111000100110, output OUT = 10110010011011111010110000111110
# UVM_INFO @ 795: uvm_test_top.env_h.comp [Comparator Match] 
# Dadda: input A = 3087568070, input B =  357238882, output OUT =  1102999365425697740
# Dadda: input A = 10111000000010001000110011000110, input B = 00010101010010110000100001100010, output OUT = 0000111101001110101001000001010000110011101011100001001111001100
# refmod: input A = -1207399226, input B =   357238882, output OUT =   867046348
# refmod: input A = 10111000000010001000110011000110, input B = 00010101010010110000100001100010, output OUT = 00110011101011100001001111001100
# UVM_INFO @ 825: uvm_test_top.env_h.comp [Comparator Match] 
# Dadda: input A = 3913605622, input B = 1385076643, output OUT =  5420643736945686946
# Dadda: input A = 11101001010001001110000111110110, input B = 01010010100011101001011110100011, output OUT = 0100101100111001111111101100001001001010100101111111100110100010
# refmod: input A =  -381361674, input B =  1385076643, output OUT =  1251473826
